<?xml version="1.0" encoding="UTF-8"?>
<svg width="38px" height="37px" viewBox="0 0 38 37" version="1.1" xmlns="http://www.w3.org/2000/svg" xmlns:xlink="http://www.w3.org/1999/xlink">
    <!-- Generator: Sketch 47.1 (45422) - http://www.bohemiancoding.com/sketch -->
    <title>暗燈泡</title>
    <desc>Created with Sketch.</desc>
    <defs></defs>
    <g id="Page-1" stroke="none" stroke-width="1" fill="none" fill-rule="evenodd">
        <g id="學生精熟機制-copy" transform="translate(-1318.000000, -169.000000)">
            <g id="暗燈泡" transform="translate(1318.500000, 169.000000)">
                <circle id="Oval-3" fill="#F0F0F0" cx="18.5" cy="18.5" r="18.5"></circle>
                <circle id="Oval-4" fill="#FFFFFF" cx="19.078125" cy="17.921875" r="8.671875"></circle>
                <ellipse id="Oval-4-Copy" fill="#F9F9F9" cx="19.078125" cy="21.96875" rx="5.203125" ry="5.78125"></ellipse>
                <g id="Group-2" transform="translate(15.031250, 25.437500)">
                    <path d="M0.100155196,0 L8.2307298,0 L8.2307298,1.38777878e-17 C8.28595827,-9.77322326e-16 8.3307298,0.0447715257 8.3307298,0.100000001 C8.3307298,0.100097548 8.33072966,0.100195095 8.33072937,0.100292641 L8.3142282,5.73901152 L8.3142282,5.73901152 C8.31414917,5.76601546 8.30315225,5.79183958 8.28373869,5.81061012 L5.95145777,8.06564124 L5.95145777,8.06564124 C5.93281015,8.08367122 5.90788636,8.09375 5.88194771,8.09375 L2.60607496,8.09375 L2.60607496,8.09375 C2.58129836,8.09375 2.55740396,8.08455206 2.53902251,8.06793874 L0.0418439432,5.81096607 L0.0418439432,5.81096607 C0.0209067941,5.79204288 0.00894028036,5.76515384 0.00889651613,5.73693241 L0.000155314929,0.100155076 L0.000155314929,0.100155076 C6.96697788e-05,0.0449266664 0.0447717125,8.576539e-05 0.100000122,1.20240204e-07 C0.100051813,4.00800799e-08 0.100103505,-4.16238679e-17 0.100155196,-4.16333634e-17 Z" id="Rectangle-6" fill="#D8D8D8"></path>
                    <path d="M8.30513935,5.78125 L5.94249253,8.06564124 L5.94249253,8.06564124 C5.92384491,8.08367122 5.89892111,8.09375 5.87298246,8.09375 L2.59710972,8.09375 L2.59710972,8.09375 C2.57233312,8.09375 2.54843872,8.08455206 2.53005727,8.06793874 L0,5.78125 L8.30513935,5.78125 Z" id="Rectangle-6-Copy-2" fill="#C6C6C6"></path>
                </g>
            </g>
        </g>
    </g>
</svg>